-----------------------------
NEXELL YOCTO BUILD INFOMATION
-----------------------------
Commit ID, Commit Message
Commit update date
-----------------------------
--------------------------------------------------------------------------------
/home/suker/repoWithYocto/bl1/bl1-s5p4418
d0fe0d4d4a9907a7477c89574f30606829cb0d03 bl1: added smart voice board type
Fri Jan 13 17:57:54 2017 +0900
--------------------------------------------------------------------------------
--------------------------------------------------------------------------------
/home/suker/repoWithYocto/bl1/bl1-s5p6818
eefb396a68eaf66d37941a6488916e3dfb50902b bl1: modified startup code for remove nsih file
Thu Jan 26 14:11:01 2017 +0900
--------------------------------------------------------------------------------
--------------------------------------------------------------------------------
/home/suker/repoWithYocto/u-boot/u-boot-2016.01
0794d01e797aaf13fb9e44cd67d1a0a6403acd95 s5p4418: smart_vocie: fix SYS CONFIG NAME
Tue Feb 21 14:57:27 2017 +0900
--------------------------------------------------------------------------------
--------------------------------------------------------------------------------
/home/suker/repoWithYocto/kernel/kernel-4.4.19
dc20d2ef06c23db04a2eb4a51c91908e17ba4062 ASoC: tlv320aic32x4: add new support feature for smart-voice
Wed Feb 15 18:00:49 2017 +0900
--------------------------------------------------------------------------------
--------------------------------------------------------------------------------
/home/suker/repoWithYocto/secure/arm-trusted-firmware
a2684acd0c492611a294a7cc9997eb81d9288e01 Merge branch 'artik' into nexell
Tue Oct 18 13:32:43 2016 +0900
--------------------------------------------------------------------------------
--------------------------------------------------------------------------------
/home/suker/repoWithYocto/secure/l-loader
884bd184f988f442b98677afbcd80f3aebbef00d nexell: modify memory map
Tue Aug 2 21:16:53 2016 +0900
--------------------------------------------------------------------------------
--------------------------------------------------------------------------------
/home/suker/repoWithYocto/secure/optee/optee_build
075e6fb639727076089377068ea9462a8f3dcbfc Merge remote-tracking branch 'origin/artik' into nexell
Thu Aug 25 15:40:38 2016 +0900
--------------------------------------------------------------------------------
--------------------------------------------------------------------------------
/home/suker/repoWithYocto/secure/optee/optee_client
0b0d237779de6982451f6f5971b7106e459a2958 Fix trace
Thu Dec 17 12:51:09 2015 +0100
--------------------------------------------------------------------------------
--------------------------------------------------------------------------------
/home/suker/repoWithYocto/secure/optee/optee_linuxdriver
5fcce5d5800a60957141f1d963edfd199480bfcb Fix freed memory use in tee_session_close_and_destroy()
Tue Jan 5 13:21:35 2016 +0100
--------------------------------------------------------------------------------
--------------------------------------------------------------------------------
/home/suker/repoWithYocto/secure/optee/optee_os
523e3c9b41b36c6625761d5c0948999da630b82c nexell: modify memory map
Tue Aug 2 21:15:33 2016 +0900
--------------------------------------------------------------------------------
--------------------------------------------------------------------------------
/home/suker/repoWithYocto/secure/optee/optee_test
75e4c82ea87442a2d291cb8b6971f30db9e9cef2 secure: optee_test: yocto compile error fix
Tue Oct 18 14:42:35 2016 +0900
--------------------------------------------------------------------------------
--------------------------------------------------------------------------------
/home/suker/repoWithYocto/library/gst-plugins-camera
b0bade0be777a4df2cbdbd9bc438b3dda783ff6d Merge branch 'artik' into nexell
Wed Oct 19 14:17:19 2016 +0900
--------------------------------------------------------------------------------
--------------------------------------------------------------------------------
/home/suker/repoWithYocto/library/gst-plugins-renderer
8dab4bfbceea456d19843cd65ba6a39324bc6db4 Merge branch 'artik' into nexell
Wed Oct 19 15:00:11 2016 +0900
--------------------------------------------------------------------------------
--------------------------------------------------------------------------------
/home/suker/repoWithYocto/library/gst-plugins-scaler
8a23c6f2bca5b959778c4a315b8912b8593ad3e7 Merge remote-tracking branch 'origin/artik' into nexell
Mon Sep 26 10:38:47 2016 +0900
--------------------------------------------------------------------------------
--------------------------------------------------------------------------------
/home/suker/repoWithYocto/library/libdrm
2dfe2ce2225a2c0b8c31053445ae006e8735a63d Merge branch 'artik' into nexell
Wed Oct 19 14:47:15 2016 +0900
--------------------------------------------------------------------------------
--------------------------------------------------------------------------------
/home/suker/repoWithYocto/library/nx-drm-allocator
23cbd9c07e3e3f398efabac2cf97585c9e663b3e Merge remote-tracking branch 'origin/artik' into nexell
Mon Sep 26 10:39:08 2016 +0900
--------------------------------------------------------------------------------
--------------------------------------------------------------------------------
/home/suker/repoWithYocto/library/nx-gst-meta
8b46746c94c4b60c8323a6dfb5aa0d2e05bbe3d3 Merge remote-tracking branch 'origin/artik' into nexell
Mon Sep 26 10:39:12 2016 +0900
--------------------------------------------------------------------------------
--------------------------------------------------------------------------------
/home/suker/repoWithYocto/library/nx-renderer
704cb886cfcb6068de7474fb60354c0977709706 nx-renderer : add to modify vip align for interlace camera sensor
Thu Nov 10 18:27:47 2016 +0900
--------------------------------------------------------------------------------
--------------------------------------------------------------------------------
/home/suker/repoWithYocto/library/nx-scaler
5514d490692692d43d047f7eb1f0ee9c50c31a0a Merge remote-tracking branch 'origin/artik' into nexell
Mon Sep 26 10:39:39 2016 +0900
--------------------------------------------------------------------------------
--------------------------------------------------------------------------------
/home/suker/repoWithYocto/library/nx-v4l2
ef523c39c86b8b1c88500bcdb16d444b782ee9ef nx-v4l2 : add format field setting function
Thu Nov 10 19:44:01 2016 +0900
--------------------------------------------------------------------------------
--------------------------------------------------------------------------------
/home/suker/repoWithYocto/library/nx-video-api
c5fe372c14f8867fe59c832285baf38e5a839f9e Merge remote-tracking branch 'origin/artik' into nexell
Mon Sep 26 10:39:48 2016 +0900
--------------------------------------------------------------------------------
--------------------------------------------------------------------------------
/home/suker/repoWithYocto/apps/testsuite
465a9f0717c834bed7e838a77a6be37c39db8013 Revert "iPodService: add to develop iPodService for Apple carplay"
Tue Dec 6 11:19:20 2016 +0900
--------------------------------------------------------------------------------
--------------------------------------------------------------------------------
/home/suker/repoWithYocto/apps/QT/NxAudioPlayer
3033527676de975a35033611347921afea9b718b qt: audio player: add ipc receiver.
Fri Feb 24 08:14:26 2017 +0900
--------------------------------------------------------------------------------
--------------------------------------------------------------------------------
/home/suker/repoWithYocto/apps/QT/NxQuickRearCam
b9a4df170705b85082a487dc54c5b0d5f969272b QtQuickRearCam: Add librearcam/lib folder.
Tue Dec 13 14:28:11 2016 +0900
--------------------------------------------------------------------------------
--------------------------------------------------------------------------------
/home/suker/repoWithYocto/apps/QT/NxVideoPlayer
bee9d7bf3443068ccaf15ca801393965c1e640fe QtVideoPlayer: Add first release.
Thu Dec 22 16:09:22 2016 +0900
--------------------------------------------------------------------------------
