SUKER: ApplyNexellDeployAction init 
SUKER: ApplyNexellDeployAction init 
SUKER: boot/fastboot.py 
{'nexell_ext': {'command': '/home/lava/bin/nexell-lava-commands.sh', 'command_param': 'boot-on-uboot', 'yaml_line': 53}, 'default_connection_timeout': 120.0, 'default_action_timeout': 1800.0, 'namespace': 'droid', 'default_test_timeout': 30, 'prompts': ['root@(.*):~#'], 'timeout': {'minutes': 3, 'yaml_line': 50}, 'yaml_line': 13, 'method': 'fastboot', 'lava-lxc': {'name': 's5p4418-test', 'template': 'debian', 'yaml_line': 14, 'release': 'jessie', 'distribution': 'debian', 'arch': 'amd64'}}
SUKER: parser.py boot device : {'device_path': ['/dev/ttyUSB0'], 'device_type': 's5p4418', 'timeouts': {'connections': {'uboot-retry': {'seconds': 60}}, 'actions': {'apply-overlay-image': {'seconds': 120}, 'umount-retry': {'seconds': 45}, 'power_off': {'seconds': 5}, 'lava-test-shell': {'seconds': 30}}}, 'hostname': 'device', 'actions': {'boot': {'connections': {'lxc': 'None'}, 'methods': {'lxc': 'None', 'fastboot': 'None'}}, 'deploy': {'connections': {'serial': 'None', 'lxc': 'None'}, 'methods': {'lxc': 'None', 'fastboot': 'None'}}}, 'fastboot_serial_number': '123456789', 'adb_serial_number': '123456789', 'power_state': 'off', 'nexell_command': True}
SUKER: parser.py boot pipeline : <lava_dispatcher.pipeline.action.Pipeline object at 0x7fa0469e0f10>
SUKER: parser.py boot test_action : True
SUKER: parser.py boot job_data : {'boot': {'default_connection_timeout': 120.0, 'default_action_timeout': 1800.0, 'namespace': 'tlxc', 'default_test_timeout': 30, 'prompts': ['root@(.*):/#'], 'timeout': {'minutes': 5, 'yaml_line': 6}, 'yaml_line': 32, 'method': 'lxc', 'lava-lxc': {'name': 's5p4418-test', 'template': 'debian', 'yaml_line': 33, 'release': 'jessie', 'distribution': 'debian', 'arch': 'amd64'}}}
SUKER: parser.py boot device : {'device_path': ['/dev/ttyUSB0'], 'device_type': 's5p4418', 'timeouts': {'connections': {'uboot-retry': {'seconds': 60}}, 'actions': {'apply-overlay-image': {'seconds': 120}, 'umount-retry': {'seconds': 45}, 'power_off': {'seconds': 5}, 'lava-test-shell': {'seconds': 30}}}, 'hostname': 'device', 'actions': {'boot': {'connections': {'lxc': 'None'}, 'methods': {'lxc': 'None', 'fastboot': 'None'}}, 'deploy': {'connections': {'serial': 'None', 'lxc': 'None'}, 'methods': {'lxc': 'None', 'fastboot': 'None'}}}, 'fastboot_serial_number': '123456789', 'adb_serial_number': '123456789', 'power_state': 'off', 'nexell_command': True}
SUKER: parser.py boot pipeline : <lava_dispatcher.pipeline.action.Pipeline object at 0x7fa0469e0f10>
SUKER: parser.py boot test_action : True
SUKER: parser.py boot job_data : {'boot': {'nexell_ext': {'command': '/home/lava/bin/nexell-lava-commands.sh', 'command_param': 'boot-on-uboot', 'yaml_line': 19}, 'default_connection_timeout': 120.0, 'default_action_timeout': 1800.0, 'namespace': 'droid', 'default_test_timeout': 30, 'prompts': ['root@(.*):~#'], 'timeout': {'minutes': 3, 'yaml_line': 21}, 'yaml_line': 32, 'method': 'fastboot', 'lava-lxc': {'name': 's5p4418-test', 'template': 'debian', 'yaml_line': 33, 'release': 'jessie', 'distribution': 'debian', 'arch': 'amd64'}}}
SUKER: parser.py test device : {'device_path': ['/dev/ttyUSB0'], 'device_type': 's5p4418', 'timeouts': {'connections': {'uboot-retry': {'seconds': 60}}, 'actions': {'apply-overlay-image': {'seconds': 120}, 'umount-retry': {'seconds': 45}, 'power_off': {'seconds': 5}, 'lava-test-shell': {'seconds': 30}}}, 'hostname': 'device', 'actions': {'boot': {'connections': {'lxc': 'None'}, 'methods': {'lxc': 'None', 'fastboot': 'None'}}, 'deploy': {'connections': {'serial': 'None', 'lxc': 'None'}, 'methods': {'lxc': 'None', 'fastboot': 'None'}}}, 'fastboot_serial_number': '123456789', 'adb_serial_number': '123456789', 'power_state': 'off', 'nexell_command': True}
SUKER: parser.py test pipeline : <lava_dispatcher.pipeline.action.Pipeline object at 0x7fa0469e0f10>
SUKER: parser.py test test_action : True
SUKER: parser.py test job_data : {'test': {'default_connection_timeout': 120.0, 'default_action_timeout': 1800.0, 'namespace': 'droid', 'default_test_timeout': 30, 'connection': 'serial', 'timeout': {'minutes': 5, 'yaml_line': 27}, 'yaml_line': 32, 'definitions': [{'path': 'test-yaml/bsp/nexell-test1.yaml', 'from': 'git', 'name': 'test1', 'repository': 'https://github.com/kchhero/helloworld_test.git', 'yaml_line': 26}], 'lava-lxc': {'name': 's5p4418-test', 'template': 'debian', 'yaml_line': 33, 'release': 'jessie', 'distribution': 'debian', 'arch': 'amd64'}}}
